<svg xmlns="http://www.w3.org/2000/svg" width="12" height="12" viewBox="0 0 12 12">
	<path fill="#CD0000" fill-rule="evenodd" d="M7.314 6.05l4.465-4.461A.918.918 0 0 0 10.484.294L6.018 4.71 1.525.22A.92.92 0 0 0 .229 1.516l4.484 4.536-4.392 4.333a.918.918 0 1 0 1.296 1.295L6 7.299l4.355 4.353a.92.92 0 0 0 1.295-1.295L7.314 6.05z"/>
</svg>
